6.1 Assignment: Housing Data
…
## [1] "Percent of data set with large residuals"

sum(diagnostics_df$large.residual)/nrow(diagnostics_df)*100

## [1] 2.596393

j. Which specific variables have large residuals (only cases that evaluate as TRUE)?

std_resid_sort <- diagnostics_df[order(-diagnostics_df$standardized.residuals),]
std_resid_sort[std_resid_sort$large.residual, 
               c("sq_ft_lot", "square_feet_total_living", "building_grade", 
                 "year_built", "standardized.residuals")]

## # A tibble: 334 x 5
##    sq_ft_lot square_feet_total_li~ building_grade year_built standardized.resid~
##        <dbl>                 <dbl>          <dbl>      <dbl>               <dbl>
##  1    425145                  1670              8       1964                10.5
##  2      4749                  2450              8       2010                10.4
##  3      4244                  2440              8       2011                10.4
##  4      4368                  2550              8       2010                10.3
##  5   1327090                  2410              6       1935                10.3
##  6      5816                  2750              8       2012                10.3
##  7     13289                  2810              8       2012                10.2
##  8      4451                  2960              8       2012                10.2
##  9      8908                  3010              8       2012                10.1
## 10      5310                  3110              8       2012                10.1
## # ... with 324 more rows
…
leverage_df$leverageX3<-leverage_df$leverage > (avgLeverage * 3)
sum(leverage_df$leverageX3)

## [1] 447

sum(leverage_df$large.residual & leverage_df$leverageX3)

## [1] 83

leverageSort <- leverage_df[order(-leverage_df$leverage),]
leverageSort[leverageSort$large.residual, 
             c("sq_ft_lot", "square_feet_total_living", "building_grade", 
               "year_built", "leverage", "standardized.residuals")]

## # A tibble: 334 x 6
##    sq_ft_lot square_feet_tot~ building_grade year_built leverage
##        <dbl>            <dbl>          <dbl>      <dbl>    <dbl>
##  1   1631322             8750             12       1996  0.0638 
##  2   1327090             2410              6       1935  0.0440 
##  3   1166246             1230              9       1999  0.0374 
##  4   1166246             3690             11       1999  0.0348 
##  5   1127205             5830             12       1969  0.0301 
##  6   1008414             5270              9       2015  0.0254 
##  7    963702             5150             11       1997  0.0223 
##  8    307752            13540             12       1999  0.0142 
##  9    657816             5790             11       1999  0.0100 
## 10    574992             2700              7       2003  0.00870
## # ... with 324 more rows, and 1 more variable: standardized.residuals <dbl>

Of the 334 cases with large residuals, 110 have leverage values over 2X the average and 83 with over 3X the average. These cases with high hat values have significantly more weight in influencing the outcome variables over the predicted values from the model than the majority of the cases and should probably be reviewed more closely.

If we wanted to see how much influence each of these cases was having on the parameters of the model, we could rerun the analysis with each case excluded and look at the change in the b coefficients.

Cooks Distance:

cooksSort <- diagnostics_df[order(-diagnostics_df$cooks.distance),]
cooksSort[cooksSort$large.residual,
          c("sq_ft_lot", "square_feet_total_living", "building_grade", 
               "year_built", "cooks.distance", "standardized.residuals")]

## # A tibble: 334 x 6
##    sq_ft_lot square_feet_tot~ building_grade year_built cooks.distance
##        <dbl>            <dbl>          <dbl>      <dbl>          <dbl>
##  1   1327090             2410              6       1935         0.979 
##  2   1631322             8750             12       1996         0.520 
##  3    657816             5790             11       1999         0.144 
##  4   1127205             5830             12       1969         0.115 
##  5   1166246             1230              9       1999         0.109 
##  6    425145             1670              8       1964         0.102 
##  7   1166246             3690             11       1999         0.0473
##  8   1008414             5270              9       2015         0.0455
##  9    139392            11810             13       2000         0.0444
## 10    307752            13540             12       1999         0.0298
## # ... with 324 more rows, and 1 more variable: standardized.residuals <dbl>
…
covrSort <- diagnostics_df[order(-diagnostics_df$covariance.ratios),]

covrSort$covariance.boundaries<-covrSort$covariance.ratios > cvrHi | 
  covrSort$covariance.ratios < cvrLo

sum(covrSort$large.residual & covrSort$covariance.boundaries)

## [1] 264

covrSort[covrSort$large.residual & covrSort$covariance.boundaries,
          c("sq_ft_lot", "year_built", "covariance.ratios", "standardized.residuals", 
            "leverage", "cooks.distance")]

## # A tibble: 264 x 6
##    sq_ft_lot year_built covariance.rati~ standardized.re~ leverage
##        <dbl>      <dbl>            <dbl>            <dbl>    <dbl>
##  1   1631322       1996             1.05            -6.18  0.0638 
##  2   1166246       1999             1.03             2.56  0.0348 
##  3   1166246       1999             1.03             3.75  0.0374 
##  4   1127205       1969             1.02            -4.31  0.0301 
##  5   1008414       2015             1.02            -2.96  0.0254 
##  6    963702       1997             1.02             2.08  0.0223 
##  7    307752       1999             1.01            -3.21  0.0142 
##  8    574992       2003             1.01            -2.09  0.00870
##  9    544199       2007             1.00            -3.16  0.00760
## 10    207781       2003             1.00             2.76  0.00668
## # ... with 254 more rows, and 1 more variable: cooks.distance <dbl>
…
